\relax 
\@writefile{toc}{\contentsline {section}{\numberline {1}Introducci\IeC {\'o} als problemes d'optimitzaci\IeC {\'o}}{3}}
\@writefile{toc}{\contentsline {subsection}{\numberline {1.1}Problema del viatjant de comer\IeC {\c c}}{3}}
\@writefile{toc}{\contentsline {section}{\numberline {2}Context}{3}}
\@writefile{toc}{\contentsline {subsection}{\numberline {2.1}Centralitzaci\IeC {\'o} del projecte}{4}}
\@writefile{toc}{\contentsline {subsection}{\numberline {2.2}Tennis Taula en nombres}{4}}
\@writefile{toc}{\contentsline {subsection}{\numberline {2.3}Termes i conceptes relacionats amb l\IeC {\textquoteright }esport}{4}}
\@writefile{toc}{\contentsline {paragraph}{Temporada}{4}}
\@writefile{toc}{\contentsline {paragraph}{Equip}{5}}
\@writefile{toc}{\contentsline {paragraph}{Jerarquia d\IeC {\textquoteright }equips}{5}}
\@writefile{toc}{\contentsline {paragraph}{Categories}{5}}
\@writefile{toc}{\contentsline {paragraph}{Contrincants}{5}}
\@writefile{toc}{\contentsline {paragraph}{Jugadors}{5}}
\@writefile{toc}{\contentsline {paragraph}{Jugadors Encadenats}{5}}
\@writefile{toc}{\contentsline {paragraph}{Estat d\IeC {\textquoteright }un jugador}{6}}
\@writefile{toc}{\contentsline {paragraph}{Tipus de Fitxa}{6}}
\@writefile{toc}{\contentsline {paragraph}{Jornada}{6}}
\@writefile{toc}{\contentsline {subsection}{\numberline {2.4}Altres termes i conceptes}{6}}
\@writefile{toc}{\contentsline {paragraph}{Constraint Programming}{6}}
\@writefile{toc}{\contentsline {paragraph}{Model}{6}}
\@writefile{toc}{\contentsline {paragraph}{Interpretaci\IeC {\'o}}{7}}
\@writefile{toc}{\contentsline {paragraph}{Solver}{7}}
\@writefile{toc}{\contentsline {subsection}{\numberline {2.5}Problema a resoldre}{7}}
\@writefile{toc}{\contentsline {paragraph}{Restriccions imposades per la federaci\IeC {\'o} i l\IeC {\textquoteright }esport}{7}}
\@writefile{toc}{\contentsline {paragraph}{Possibles restriccions imposades pels clubs}{7}}
\@writefile{toc}{\contentsline {subsection}{\numberline {2.6}Actors Implicats}{8}}
\@writefile{toc}{\contentsline {paragraph}{Desenvolupador i dissenyador}{8}}
\@writefile{toc}{\contentsline {paragraph}{Test de l\IeC {\textquoteright }aplicaci\IeC {\'o}}{8}}
\@writefile{toc}{\contentsline {paragraph}{Director del projecte}{8}}
\@writefile{toc}{\contentsline {paragraph}{Club de Tennis Taula}{8}}
\@writefile{toc}{\contentsline {subsection}{\numberline {2.7}Justificaci\IeC {\'o}}{8}}
\@writefile{toc}{\contentsline {section}{\numberline {3}Abast}{9}}
\@writefile{toc}{\contentsline {subsection}{\numberline {3.1}Objectius del projecte}{9}}
\@writefile{toc}{\contentsline {subsection}{\numberline {3.2}Sub-objectius del projecte}{9}}
\@writefile{toc}{\contentsline {paragraph}{Configuraci\IeC {\'o} d\IeC {\textquoteright }elements que formen part d\IeC {\textquoteright }una alineaci\IeC {\'o}}{9}}
\@writefile{toc}{\contentsline {paragraph}{Gesti\IeC {\'o} d\IeC {\textquoteright }alineacions}{10}}
\@writefile{toc}{\contentsline {paragraph}{Generaci\IeC {\'o} autom\IeC {\`a}tica d\IeC {\textquoteright }alineacions}{10}}
\@writefile{toc}{\contentsline {paragraph}{Consultes}{10}}
\@writefile{toc}{\contentsline {paragraph}{Altres requeriments}{10}}
\@writefile{toc}{\contentsline {subsection}{\numberline {3.3}Problemes i riscos}{11}}
\@writefile{toc}{\contentsline {paragraph}{Calendari marcat per la facultat}{11}}
\@writefile{toc}{\contentsline {paragraph}{Problemes relacionats amb el codi}{11}}
\@writefile{toc}{\contentsline {paragraph}{Integraci\IeC {\'o} del projecte en l'entorn real}{11}}
\@writefile{toc}{\contentsline {paragraph}{Desconfian\IeC {\c c}a del client}{11}}
\@writefile{toc}{\contentsline {subsection}{\numberline {3.4}Metodologia i rigor}{11}}
\@writefile{toc}{\contentsline {paragraph}{Trello}{12}}
\@writefile{toc}{\contentsline {paragraph}{Gitlab}{12}}
\@writefile{toc}{\contentsline {section}{\numberline {4}Programa}{12}}
\@writefile{toc}{\contentsline {subsection}{\numberline {4.1}Tasques del projecte}{12}}
\@writefile{toc}{\contentsline {paragraph}{Planificaci\IeC {\'o} i gesti\IeC {\'o} del projecte}{12}}
\@writefile{toc}{\contentsline {paragraph}{An\IeC {\`a}lisis, disseny i desenvolupament i proves de la interf\IeC {\'\i }cie web}{13}}
\@writefile{toc}{\contentsline {paragraph}{Disseny, desenvolupament i proves del algorisme que genera alineacions}{13}}
\@writefile{lot}{\contentsline {table}{\numberline {1}{\ignorespaces Taula resum amb les tasques del projecte}}{14}}
\newlabel{taula:1}{{1}{14}}
\@writefile{toc}{\contentsline {subsection}{\numberline {4.2}Taula Resum}{14}}
\@writefile{toc}{\contentsline {section}{\numberline {5}Recursos humans i materials}{14}}
\@writefile{toc}{\contentsline {paragraph}{Recursos humans}{14}}
\@writefile{toc}{\contentsline {paragraph}{Hardware}{15}}
\@writefile{toc}{\contentsline {paragraph}{Software}{15}}
\@writefile{toc}{\contentsline {section}{\numberline {6}Gesti\IeC {\'o} del risc. Plans alternatius i obstacles}{15}}
\@writefile{toc}{\contentsline {paragraph}{Mancan\IeC {\c c}a de temps degudes les dates imposades per la facultat}{15}}
\@writefile{lot}{\contentsline {table}{\numberline {2}{\ignorespaces Taula amb costos referents a recursos humans}}{16}}
\newlabel{taula:2}{{2}{16}}
\@writefile{toc}{\contentsline {paragraph}{Problemes relacionats amb el codi}{16}}
\@writefile{toc}{\contentsline {paragraph}{Implementaci\IeC {\'o} del projecte en l'entorn real}{16}}
\@writefile{toc}{\contentsline {section}{\numberline {7}Pressupost}{16}}
\@writefile{toc}{\contentsline {subsection}{\numberline {7.1}C\IeC {\`a}lcul de costos}{16}}
\@writefile{toc}{\contentsline {paragraph}{Cost de recursos humans}{16}}
\@writefile{toc}{\contentsline {paragraph}{Costos del hardware}{16}}
\@writefile{lot}{\contentsline {table}{\numberline {3}{\ignorespaces Taula amb costos referents a hardware}}{17}}
\newlabel{taula:3}{{3}{17}}
\@writefile{lot}{\contentsline {table}{\numberline {4}{\ignorespaces Taula amb costos referents a software}}{17}}
\newlabel{taula:4}{{4}{17}}
\@writefile{toc}{\contentsline {paragraph}{Costos del software}{17}}
\@writefile{toc}{\contentsline {paragraph}{Costos indirectes}{17}}
\@writefile{lot}{\contentsline {table}{\numberline {5}{\ignorespaces Taula amb costos indirectes}}{17}}
\newlabel{taula:5}{{5}{17}}
\@writefile{lot}{\contentsline {table}{\numberline {6}{\ignorespaces Taula amb costos indirectes}}{18}}
\newlabel{taula:5}{{6}{18}}
\@writefile{toc}{\contentsline {subsection}{\numberline {7.2}Pressupost Total}{18}}
\@writefile{toc}{\contentsline {subsection}{\numberline {7.3}Conting\IeC {\`e}ncies}{18}}
\@writefile{toc}{\contentsline {subsection}{\numberline {7.4}Imprevistos}{18}}
\@writefile{toc}{\contentsline {section}{\numberline {8}Informe de Sostenibilitat}{18}}
\@writefile{toc}{\contentsline {subsection}{\numberline {8.1}Autoavaluaci\IeC {\'o}}{19}}
\@writefile{toc}{\contentsline {subsection}{\numberline {8.2}\IeC {\`A}mbit Economic}{19}}
\@writefile{toc}{\contentsline {subsection}{\numberline {8.3}\IeC {\`A}mbit Ambiental}{19}}
\@writefile{toc}{\contentsline {subsection}{\numberline {8.4}\IeC {\`A}mbit Social}{19}}
